[
    {
        "Id": "1",
        "UserName": "Admin",
        "Email": "admin1@forum.com",
        "Reputation": 5997,
        "LastActiveDate": "2021-10-10",
        "CreationDate": "2021-09-18"
    },
    {
        "Id": "2",
        "UserName": "Moderator",
        "Email": "moder1@forum.com",
        "Reputation": 4072,
        "LastActiveDate": "2021-10-31",
        "CreationDate": "2021-09-25"
    },
    {
        "Id": "3",
        "UserName": "Marquez",
        "Email": "marquezmcdowell@locazone.com",
        "Reputation": 246,
        "LastActiveDate": "2021-10-04",
        "CreationDate": "2021-09-11"
    },
    {
        "Id": "4",
        "UserName": "Aurora",
        "Email": "auroramcdowell@locazone.com",
        "Reputation": 432,
        "LastActiveDate": "2021-10-29",
        "CreationDate": "2021-09-01"
    },
    {
        "Id": "5",
        "UserName": "Harrison",
        "Email": "harrisonmcdowell@locazone.com",
        "Reputation": 411,
        "LastActiveDate": "2021-10-26",
        "CreationDate": "2021-09-24"
    },
    {
        "Id": "6",
        "UserName": "Morton",
        "Email": "mortonmcdowell@locazone.com",
        "Reputation": 481,
        "LastActiveDate": "2021-10-17",
        "CreationDate": "2021-09-25"
    },
    {
        "Id": "7",
        "UserName": "Mcknight",
        "Email": "mcknightmcdowell@locazone.com",
        "Reputation": 91,
        "LastActiveDate": "2021-10-18",
        "CreationDate": "2021-09-20"
    },
    {
        "Id": "8",
        "UserName": "Ewing",
        "Email": "ewingmcdowell@locazone.com",
        "Reputation": 241,
        "LastActiveDate": "2021-10-08",
        "CreationDate": "2021-09-30"
    },
    {
        "Id": "9",
        "UserName": "Ward",
        "Email": "wardmcdowell@locazone.com",
        "Reputation": 373,
        "LastActiveDate": "2021-10-28",
        "CreationDate": "2021-09-14"
    },
    {
        "Id": "10",
        "UserName": "Fannie",
        "Email": "fanniemcdowell@locazone.com",
        "Reputation": 320,
        "LastActiveDate": "2021-10-02",
        "CreationDate": "2021-09-14"
    },
    {
        "Id": "11",
        "UserName": "Soto",
        "Email": "sotomcdowell@locazone.com",
        "Reputation": 109,
        "LastActiveDate": "2021-10-17",
        "CreationDate": "2021-09-14"
    },
    {
        "Id": "12",
        "UserName": "Francesca",
        "Email": "francescamcdowell@locazone.com",
        "Reputation": 371,
        "LastActiveDate": "2021-10-04",
        "CreationDate": "2021-09-11"
    },
    {
        "Id": "13",
        "UserName": "Casey",
        "Email": "caseymcdowell@locazone.com",
        "Reputation": 118,
        "LastActiveDate": "2021-10-09",
        "CreationDate": "2021-09-09"
    },
    {
        "Id": "14",
        "UserName": "Cornelia",
        "Email": "corneliamcdowell@locazone.com",
        "Reputation": 456,
        "LastActiveDate": "2021-10-10",
        "CreationDate": "2021-09-09"
    },
    {
        "Id": "15",
        "UserName": "Berg",
        "Email": "bergmcdowell@locazone.com",
        "Reputation": 283,
        "LastActiveDate": "2021-10-31",
        "CreationDate": "2021-09-16"
    },
    {
        "Id": "16",
        "UserName": "Mayo",
        "Email": "mayomcdowell@locazone.com",
        "Reputation": 176,
        "LastActiveDate": "2021-10-17",
        "CreationDate": "2021-09-26"
    },
    {
        "Id": "17",
        "UserName": "Washington",
        "Email": "washingtonmcdowell@locazone.com",
        "Reputation": 107,
        "LastActiveDate": "2021-10-19",
        "CreationDate": "2021-09-09"
    },
    {
        "Id": "18",
        "UserName": "Clements",
        "Email": "clementsmcdowell@locazone.com",
        "Reputation": 5,
        "LastActiveDate": "2021-10-18",
        "CreationDate": "2021-09-08"
    },
    {
        "Id": "19",
        "UserName": "Mccarthy",
        "Email": "mccarthymcdowell@locazone.com",
        "Reputation": 398,
        "LastActiveDate": "2021-10-28",
        "CreationDate": "2021-09-10"
    },
    {
        "Id": "20",
        "UserName": "Ericka",
        "Email": "erickamcdowell@locazone.com",
        "Reputation": 334,
        "LastActiveDate": "2021-10-07",
        "CreationDate": "2021-09-22"
    }
]